[
    {
        "thumbnail": "https://cdn.pixabay.com/photo/2022/12/12/19/14/paris-7651738_960_720.jpg",
        "photo": "https://pixabay.com/get/g7604569627914fbe0c09d46a2bff67444c510f33ee29b94950f2ba09b874748921d7015e9a51d548344ec02da5c28701f9c98c57f008155a4db14e5821df09682b513ddb739da4b6be32cb072c814673_1920.jpg",
        "title": "法国-凯旋门",
        "icon": "camera-outline",
        "place": "French"
    },
    {
        "thumbnail": "https://cdn.pixabay.com/photo/2021/10/30/06/43/sea-6753636_960_720.jpg",
        "photo": "https://pixabay.com/get/ge3d955355ff6e28f373bba11c6888bd206c584387156b75a9b654b70a49a596ade67559e15e86b23442a22d8d1a4b30b5de3c7c2fc214641641695e60752421d902093474d051c5e79f9d44f84118c59_1920.jpg",
        "title": "海-日落",
        "icon": "camera",
        "place": "camera-outline"
    }
]